Introduction to snaplocs • snaplocs
…
      snapsite

      Introduction to snaplocs

snaplocs is as package in the functional sector of the SNAPverse. Like most packages, it contains some form of data. However, it is not a data sector package. Data packages are those that contain a large enough amount of data to warrant a standalone package so that functional packages remain small. This is not one of those packages. Unlike snappoly and snapgrid it does not contain any maps. snaplocs contains point location data in a single data frame. There are 3,914 locations in all, spread across Alaska and western Canada. Compared to SNAPverse data packages, this is quite small.

While snaplocs is nevertheless still typically treated as a data package for basic access to the locs data set, the package does provide a collection of functions for working with the data. This vignette provides example usage of several functions.

Point location data

Print a summary of the data.

library(snaplocs)
locs
#> # A tibble: 3,914 x 4
#>    Location      Group    lon   lat
#>    <chr>         <fctr> <dbl> <dbl>
#>  1 Adak Station  Alaska  -177  51.9
#>  2 Afognak       Alaska  -153  58.0
#>  3 Akhiok        Alaska  -154  56.9
#>  4 Akiachak      Alaska  -161  60.9
#>  5 Akiak         Alaska  -161  60.9
#>  6 Akutan        Alaska  -166  54.1
#>  7 Alakanuk      Alaska  -165  62.7
#>  8 Alatna        Alaska  -153  66.6
#>  9 Aleknagik     Alaska  -159  59.3
#> 10 Aleut Village Alaska  -153  58.0
#> # ... with 3,904 more rows
…
