Utilities For SNAPverse Development • snapmeta
…
This should all be familiar if you develop R packages, but it can be easy to occasionally neglect a step. The recommendations are not completely universal, however, and cater specifically to SNAPverse package development.

If it meets all needs, run:

use_these()

If something different is needed, ignore the above wrapper function. Instead, make individual calls to whichever package setup functions are required.

Getting info from the verse

A table of all SNAPverse packages can be obtained by:

sv_pkgs()
#> # A tibble: 25 x 3
#>    pkg       type      local
#>    <chr>     <chr>     <lgl>
#>  1 snapverse sector    TRUE 
#>  2 snaplite  sector    FALSE
#>  3 snapdata  sector    FALSE
#>  4 snapwebs  sector    FALSE
#>  5 snapstat  functions TRUE 
#>  6 snapplot  functions TRUE 
#>  7 snaplocs  functions TRUE 
#>  8 snapprep  functions TRUE 
#>  9 alfresco  functions TRUE 
#> 10 snapclim  data      TRUE 
#> # ... with 15 more rows
…
