…
``` r
use_these()
```

If something different is needed, ignore the above wrapper function. Instead, make individual calls to whichever package setup functions are required.

Getting info from the verse
---------------------------

A table of all SNAPverse packages can be obtained by:

``` r
sv_pkgs()
#> # A tibble: 24 x 3
#>    pkg       type      local
#>    <chr>     <chr>     <lgl>
#>  1 snapverse sector    T    
#>  2 snaplite  sector    F    
#>  3 snapdata  sector    F    
#>  4 snapwebs  sector    F    
#>  5 snapstat  functions T    
#>  6 snapplot  functions T    
#>  7 snaplocs  functions T    
#>  8 snapprep  functions T    
#>  9 alfresco  functions T    
#> 10 snapclim  data      T    
#> # ... with 14 more rows
```
…
