SNAPverse data package: snapclim • snapclim
…
library(snapclim)
climate_collections()
#> # A tibble: 1 x 11
#>   id       descrip~ regio~ poin~ start   end daily mont~ seas~ annu~ deca~
#>   <chr>    <chr>    <lgl>  <lgl> <dbl> <dbl> <lgl> <lgl> <lgl> <lgl> <lgl>
#> 1 ar5stats AR5/CMI~ T      T      1901  2100 F     T     T     T     T

This prints a table of available data sets, one per row. The columns provide useful metadata regarding each data set.

Available locations

For most data sets, a request returns data for a specific location. Given that there are 86 defined climate regions and 3,867 point locations across Alaska and western Canada in the ar5stats collection, it is helpful to consult a table of available locations.

climate_locations()
#> # A tibble: 3,953 x 2
#>    Location                                Group               
#>    <chr>                                   <chr>               
#>  1 AK-CAN                                  AK-CAN              
#>  2 Arctic LCC                              AK LCC regions      
#>  3 North Pacific LCC                       AK LCC regions      
#>  4 Northwestern Interior Forest  South LCC AK LCC regions      
#>  5 Northwestern Interior Forest North LCC  AK LCC regions      
#>  6 Western Alaska LCC                      AK LCC regions      
#>  7 Boreal                                  Alaska L1 Ecoregions
#>  8 Maritime                                Alaska L1 Ecoregions
#>  9 Polar                                   Alaska L1 Ecoregions
#> 10 Alaska Range Transition                 Alaska L2 Ecoregions
#> # ... with 3,943 more rows

The table is truncated here, but contains nearly 4,000 options under the Location column. There is a corresponding column providing the set that each location is grouped under. Every location belongs to a group. The table above contains all regions and point locations. climate_locations can be used to list a subset of only one or the other.

climate_locations(type = "region")
#> # A tibble: 86 x 2
#>    Location                                Group               
#>    <chr>                                   <chr>               
#>  1 AK-CAN                                  AK-CAN              
#>  2 Arctic LCC                              AK LCC regions      
#>  3 North Pacific LCC                       AK LCC regions      
#>  4 Northwestern Interior Forest  South LCC AK LCC regions      
#>  5 Northwestern Interior Forest North LCC  AK LCC regions      
#>  6 Western Alaska LCC                      AK LCC regions      
#>  7 Boreal                                  Alaska L1 Ecoregions
#>  8 Maritime                                Alaska L1 Ecoregions
#>  9 Polar                                   Alaska L1 Ecoregions
#> 10 Alaska Range Transition                 Alaska L2 Ecoregions
#> # ... with 76 more rows
climate_locations(type = "point")
#> # A tibble: 3,867 x 2
#>    Location      Group 
#>    <chr>         <chr> 
#>  1 Adak Station  Alaska
#>  2 Afognak       Alaska
#>  3 Akhiok        Alaska
#>  4 Akiachak      Alaska
#>  5 Akiak         Alaska
#>  6 Akutan        Alaska
#>  7 Alakanuk      Alaska
#>  8 Alatna        Alaska
#>  9 Aleknagik     Alaska
#> 10 Aleut Village Alaska
#> # ... with 3,857 more rows
…
It is good practice to avoid ambiguity when requesting data, though it is permitted since familiarity with the available locations you are interested in can make your data requests simpler.

Data requests

snapclim provides access to a large amount of SNAP climate data, far more than would be stored locally within an R package. The data collections are stored on Amazon Web Services (AWS). snapclim interfaces with AWS to bring the specific data you need into your R session, as if it were a native package data set.

SNAP climate data sets are accessed with climdata. If at any time you get stuck with using climdata, see the function documentation. It provides detailed descriptions and usage for the available function arguments. The first argument, id, specifies a unique data collection. See the id column in climate_collections above. Next, a location is specified. A simple call to climdata for SNAP 2-km downscaled AR5/CMIP5 climate data summary statistics for Anchorage, Alaska looks like the following.

climdata("ar5stats", "Anchorage")
#> # A tibble: 101,400 x 8
#>    RCP        Model   Var    Group  Location   Year Month   Mean
#>    <fctr>     <fctr>  <fctr> <chr>  <chr>     <int> <fctr> <dbl>
#>  1 Historical CRU 4.0 pr     Alaska Anchorage  1901 Jan     7.00
#>  2 Historical CRU 4.0 pr     Alaska Anchorage  1901 Feb     1.00
#>  3 Historical CRU 4.0 pr     Alaska Anchorage  1901 Mar    14.0 
#>  4 Historical CRU 4.0 pr     Alaska Anchorage  1901 Apr    16.0 
#>  5 Historical CRU 4.0 pr     Alaska Anchorage  1901 May    13.0 
#>  6 Historical CRU 4.0 pr     Alaska Anchorage  1901 Jun    24.0 
#>  7 Historical CRU 4.0 pr     Alaska Anchorage  1901 Jul    40.0 
#>  8 Historical CRU 4.0 pr     Alaska Anchorage  1901 Aug    70.0 
#>  9 Historical CRU 4.0 pr     Alaska Anchorage  1901 Sep    58.0 
#> 10 Historical CRU 4.0 pr     Alaska Anchorage  1901 Oct    69.0 
#> # ... with 101,390 more rows

In subsequent examples, arguments are named for additional clarity.

The data includes SNAP’s downscaled historical, observation-based Climatological Research Unit (CRU) 4.0 data and both downscaled historical and projected climate model outputs for all five of the General Circulation Models (GCMs) utilized by SNAP. All three CMIP5 emissions scenarios, or Representative Concentration Pathways (RCPs) are included. The data cover the entire available time period at a monthly time step.

By default, all available climate variables are returned: precipitation and mean, minimum and maximum temperature. These refer to monthly precipitation totals and monthly means of mean, minimum and maximum daily temperatures. This can be reduced to a specific variable in the initial call to climdata with variable = "pr" for example, or the table can be filtered subsequently.

What if the location is not unique, like Galena? climdata will throw a warning and let you know it is assuming the first group found in the list of available locations.

climdata(id = "ar5stats", area = "Galena")
#> Warning in .check_area(area, set): `area` not unique and `set` not
#> provided. Assuming 'Alaska'. Please provide `set`.
#> # A tibble: 101,400 x 8
#>    RCP        Model   Var    Group  Location  Year Month   Mean
#>    <fctr>     <fctr>  <fctr> <chr>  <chr>    <int> <fctr> <dbl>
#>  1 Historical CRU 4.0 pr     Alaska Galena    1901 Jan     18.0
#>  2 Historical CRU 4.0 pr     Alaska Galena    1901 Feb     18.0
#>  3 Historical CRU 4.0 pr     Alaska Galena    1901 Mar     18.0
#>  4 Historical CRU 4.0 pr     Alaska Galena    1901 Apr     16.0
#>  5 Historical CRU 4.0 pr     Alaska Galena    1901 May     15.0
#>  6 Historical CRU 4.0 pr     Alaska Galena    1901 Jun     33.0
#>  7 Historical CRU 4.0 pr     Alaska Galena    1901 Jul     48.0
#>  8 Historical CRU 4.0 pr     Alaska Galena    1901 Aug     61.0
#>  9 Historical CRU 4.0 pr     Alaska Galena    1901 Sep     42.0
#> 10 Historical CRU 4.0 pr     Alaska Galena    1901 Oct     30.0
#> # ... with 101,390 more rows

The following example avoids the ambiguity, hence no warning.

climdata(id = "ar5stats", area = "Galena", set = "British Columbia")
#> # A tibble: 101,400 x 8
#>    RCP        Model   Var    Group            Location  Year Month   Mean
#>    <fctr>     <fctr>  <fctr> <chr>            <chr>    <int> <fctr> <dbl>
#>  1 Historical CRU 4.0 pr     British Columbia Galena    1901 Jan    87.0 
#>  2 Historical CRU 4.0 pr     British Columbia Galena    1901 Feb    62.0 
#>  3 Historical CRU 4.0 pr     British Columbia Galena    1901 Mar    26.0 
#>  4 Historical CRU 4.0 pr     British Columbia Galena    1901 Apr    34.0 
#>  5 Historical CRU 4.0 pr     British Columbia Galena    1901 May    27.0 
#>  6 Historical CRU 4.0 pr     British Columbia Galena    1901 Jun    87.0 
#>  7 Historical CRU 4.0 pr     British Columbia Galena    1901 Jul    36.0 
#>  8 Historical CRU 4.0 pr     British Columbia Galena    1901 Aug     6.00
#>  9 Historical CRU 4.0 pr     British Columbia Galena    1901 Sep    69.0 
#> 10 Historical CRU 4.0 pr     British Columbia Galena    1901 Oct    21.0 
#> # ... with 101,390 more rows

Regional statistics

The climate variable values given in the tables obtained so far have all pertained to specific points in space. For regional climate data, a broad set of statistics is available that summarizes the distribution of climate values over a spatial domain defined by a polygon. For example, the table for the Arctic Tundra contains the mean, standard deviation, minimum, maximum and a set of distribution quantiles. Since the columns are truncated when printed in the display below, the first seven columns of ID variables are dropped in this example using select in order to show more of the additional statistics.

x <- climdata(id = "ar5stats", area = "Arctic Tundra")
select(x, -c(1:7))
#> # A tibble: 101,400 x 13
#>     Mean    SD    Min   Max Pct_025 Pct_05 Pct_10 Pct_25 Pct_~ Pct_~ Pct_~
#>    <dbl> <dbl>  <dbl> <dbl>   <dbl>  <dbl>  <dbl>  <dbl> <dbl> <dbl> <dbl>
#>  1  19.3  6.70  5.80   56.2    9.10  10.0   11.1   14.8   18.3  23.0  28.8
#>  2  15.4  5.60  4.10   46.1    6.90   8.10   9.00  11.1   14.0  18.9  23.7
#>  3  14.2  5.60  2.90   38.1    6.90   8.10   9.00   9.90  13.0  17.1  22.1
#>  4  15.5  6.50  4.00   49.7    7.90   8.10   9.00  10.8   13.9  19.1  24.8
#>  5  15.1  7.80  0.700  53.1    7.00   7.80   8.00   8.90  12.2  19.9  26.2
#>  6  29.9 16.6  10.5   126     12.6   13.5   14.2   17.3   23.9  39.8  55.1
#>  7  49.7 22.0  12.5   144     17.9   21.3   25.1   31.3   46.0  64.5  79.9
#>  8  63.7 25.6  22.4   167     28.8   30.6   32.8   41.5   61.5  80.1  97.0
#>  9  43.4 24.3  14.6   144     17.9   19.0   20.5   23.1   36.2  57.0  78.3
#> 10  33.3 11.2  17.8    80.4   20.1   20.9   21.8   23.9   30.7  39.8  50.0
#> # ... with 101,390 more rows, and 2 more variables: Pct_95 <dbl>, Pct_975
#> #   <dbl>

Note that these statistics summarize values across space. They do not also summarize values over months or years, or across climate models and scenarios. Distributional information is available for each point in time and under each combination of other available factors.

Seasonal and annual data

More highly aggregated data sets are available as well. The previous data sets were returned using the default argument time_scale = "monthly". If you simply change this to seasonal or annual, climdata will return the respective data set. The first few columns have been dropped:

x <- climdata(id = "ar5stats", area = "Arctic Tundra", time_scale = "seasonal")
select(x, -c(1:3))
#> # A tibble: 33,800 x 17
#>    Group    Region   Year Seas~  Mean    SD    Min   Max Pct_~ Pct_~ Pct_~
#>    <chr>    <chr>   <int> <fct> <dbl> <dbl>  <dbl> <dbl> <dbl> <dbl> <dbl>
#>  1 Alaska ~ Arctic~  1901 Wint~  18.9  7.80  1.50   65.3  8.10  9.10 10.1 
#>  2 Alaska ~ Arctic~  1901 Spri~  15.0  6.70  0.700  51.2  7.30  7.90  8.20
#>  3 Alaska ~ Arctic~  1901 Summ~  47.4 25.5  10.1   157   13.6  14.8  18.2 
#>  4 Alaska ~ Arctic~  1901 Autu~  33.4 18.3   6.30  144   12.2  13.9  17.6 
#>  5 Alaska ~ Arctic~  1902 Wint~  19.1  8.10  1.60   66.9  8.00  9.00 10.0 
#>  6 Alaska ~ Arctic~  1902 Spri~  15.0  6.70  0.500  53.0  7.50  7.90  8.30
#>  7 Alaska ~ Arctic~  1902 Summ~  47.3 25.4  10.5   168   13.7  14.7  18.0 
#>  8 Alaska ~ Arctic~  1902 Autu~  32.9 17.9   6.70  143   12.0  13.8  17.6 
#>  9 Alaska ~ Arctic~  1903 Wint~  19.1  8.40  1.60   61.2  7.90  8.90 10.0 
#> 10 Alaska ~ Arctic~  1903 Spri~  14.6  9.90  0.800  74.7  4.50  5.70  7.00
#> # ... with 33,790 more rows, and 6 more variables: Pct_25 <dbl>, Pct_50
#> #   <dbl>, Pct_75 <dbl>, Pct_90 <dbl>, Pct_95 <dbl>, Pct_975 <dbl>
…
This means that, for example, monthly temperature quantiles for the Arctic Tundra are calculated from monthly spatial temperature distributions and winter temperature quantiles are calculated from the applicable 3-month period spatial temperature distributions. While the mean is invariant to this difference, other statistics are not. The 95th percentile winter temperature across space during the three month period does not result from taking the average of three monthly 95th percentile values.

A final note on season and annual statistics is that, like monthly statistics, these remain period totals for precipitation and period averages for temperature variables.

Decadal data

In contrast to monthly, seasonal and annual resolution statistics, all three of which are computed across space at their respective temporal resolutions, decadal statistics are in fact simple decadal averages of monthly, seasonal and annual data. For example, the decadal mean of the 95th percentile monthly temperature across a region is just that; the mean of the ten annual 95th percentile monthly values in a decade.

For this reason, decadal data is not requested with climdata by specifying it with time_scale, which always pertains to annual and intra-annual (monthly or seasonal) time steps. Instead, use decavg = TRUE. This is FALSE by default so it did not previously need to be specified. When requesting decadal averages, there is still the choice of whether those averages should be of monthly, seasonal or annual resolution statistics.

x <- climdata(id = "ar5stats", area = "Arctic Tundra", time_scale = "seasonal", 
    decavg = TRUE)
select(x, -c(1:3))
#> # A tibble: 3,776 x 17
#>    Group Regi~ Deca~ Seas~  Mean    SD   Min   Max Pct_~ Pct_~ Pct_~ Pct_~
#>    <chr> <chr> <int> <fct> <dbl> <dbl> <dbl> <dbl> <dbl> <dbl> <dbl> <dbl>
#>  1 Alas~ Arct~  1900 Wint~  18.1  8.80 1.60   71.1  6.60  7.60  8.80 11.9 
#>  2 Alas~ Arct~  1900 Spri~  14.2  8.70 0.500  70.6  3.70  4.70  6.50  9.00
#>  3 Alas~ Arct~  1900 Summ~  46.3 27.6  7.80  188   12.4  13.9  16.6  25.0 
#>  4 Alas~ Arct~  1900 Autu~  30.3 18.2  4.10  144    8.60 10.1  13.3  19.2 
#>  5 Alas~ Arct~  1910 Wint~  20.1 13.8  1.00  107    5.20  6.50  8.50 11.6 
#>  6 Alas~ Arct~  1910 Spri~  16.5 12.3  0.600  98.4  4.10  5.00  6.70  8.90
#>  7 Alas~ Arct~  1910 Summ~  47.0 29.0  6.90  198   11.8  13.2  16.3  25.2 
#>  8 Alas~ Arct~  1910 Autu~  32.5 20.9  3.60  162    8.70 11.0  14.3  19.9 
#>  9 Alas~ Arct~  1920 Wint~  22.7 15.1  0.900 102    5.10  6.20  7.60 11.3 
#> 10 Alas~ Arct~  1920 Spri~  16.1 12.2  0.400  84.7  2.30  2.90  4.00  7.40
#> # ... with 3,766 more rows, and 5 more variables: Pct_50 <dbl>, Pct_75
#> #   <dbl>, Pct_90 <dbl>, Pct_95 <dbl>, Pct_975 <dbl>

Mulitple locations

It is possible to obtain climate data sets that include multiple locations using climdata, but this is only available for smaller data sets where it would not lead to a cumbersome data download. Currently, the only data set for which multiple locations can be returned at once is the decadal averages data set in the ar5stats collection. By specifying area = "points" rather than a specific point location, a table is returned containing data for all 3,867 point locations.

There are two requirements that help to ensure this does not lead to an excessive download size or waiting time. As mentioned, this is only available for the highly aggregated decadal data. Without setting decavg = TRUE, attempting to specify area = "points" will throw an error. The second requirement is that only a single climate variable will be returned. You can always call climdata multiple times for additional variables if desired. Therefore, you should also specify the variable argument. If you do not, mean temperature (tas) is assumed.

x <- climdata(id = "ar5stats", area = "points", time_scale = "annual", decavg = TRUE, 
    variable = "tas")

To show the result more effectively, filter the table to a specific combination of other factors.

filter(x, RCP == "6.0" & Model == "GFDL-CM3" & Decade == 2050)
#> # A tibble: 3,867 x 8
#>    RCP    Model    Var    Group  Location      Decade Season  Mean
#>    <fctr> <fctr>   <fctr> <chr>  <chr>          <int> <fctr> <dbl>
#>  1 6.0    GFDL-CM3 tas    Alaska Adak Station    2050 Annual  7.20
#>  2 6.0    GFDL-CM3 tas    Alaska Afognak         2050 Annual  8.60
#>  3 6.0    GFDL-CM3 tas    Alaska Akhiok          2050 Annual  8.40
#>  4 6.0    GFDL-CM3 tas    Alaska Akiachak        2050 Annual  3.40
#>  5 6.0    GFDL-CM3 tas    Alaska Akiak           2050 Annual  3.30
#>  6 6.0    GFDL-CM3 tas    Alaska Akutan          2050 Annual  7.60
#>  7 6.0    GFDL-CM3 tas    Alaska Alakanuk        2050 Annual  3.80
#>  8 6.0    GFDL-CM3 tas    Alaska Alatna          2050 Annual -1.70
#>  9 6.0    GFDL-CM3 tas    Alaska Aleknagik       2050 Annual  5.40
#> 10 6.0    GFDL-CM3 tas    Alaska Aleut Village   2050 Annual  8.60
#> # ... with 3,857 more rows
…
