Obtain SNAP climate data sets — climdata â€¢ snapclim
…
Data sets are retrieved for specific locations. For the smaller, decadal resolution data sets, there is an option to download
all point locations in one table with area = "points" (requires decavg = TRUE),
but in this case it must be requested for a specific climate variable to further reduce the download size to no more than 24
MB compressed for all 3,867 point locations.
In general, if variable = NULL, all available climate variables are retained. In the case of area = "points",
a specific climate variable must be provided or it will default to temperature (tas).

    Examples

climdata("ar5stats", "AK-CAN")
#> # A tibble: 101,400 x 20
#>    RCP     Model  Var    Group  Regi~  Year Month  Mean    SD   Min   Max Pct_~
#>    <fctr>  <fctr> <fctr> <chr>  <chr> <int> <fct> <dbl> <dbl> <dbl> <dbl> <dbl>
#>  1 Histor~ CRU 4~ pr     AK-CAN AK-C~  1901 Jan    57.0  97.5 1.30   1048  7.70
#>  2 Histor~ CRU 4~ pr     AK-CAN AK-C~  1901 Feb    45.6  77.8 0.400   674  4.50
#>  3 Histor~ CRU 4~ pr     AK-CAN AK-C~  1901 Mar    51.3  83.7 2.30    943  6.40
#>  4 Histor~ CRU 4~ pr     AK-CAN AK-C~  1901 Apr    48.0  81.3 3.50    771  8.00
#>  5 Histor~ CRU 4~ pr     AK-CAN AK-C~  1901 May    51.5  47.6 0.200   592  6.90
#>  6 Histor~ CRU 4~ pr     AK-CAN AK-C~  1901 Jun    80.7  52.9 5.70    493 15.5 
#>  7 Histor~ CRU 4~ pr     AK-CAN AK-C~  1901 Jul    71.1  53.5 0.800   640  4.40
#>  8 Histor~ CRU 4~ pr     AK-CAN AK-C~  1901 Aug    65.4  73.7 0       900  3.70
#>  9 Histor~ CRU 4~ pr     AK-CAN AK-C~  1901 Sep    80.5  79.0 4.30   1063 10.9 
#> 10 Histor~ CRU 4~ pr     AK-CAN AK-C~  1901 Oct    73.7 132   2.10   1376  5.50
#> # ... with 101,390 more rows, and 8 more variables: Pct_05 <dbl>, Pct_10 <dbl>,
#> #   Pct_25 <dbl>, Pct_50 <dbl>, Pct_75 <dbl>, Pct_90 <dbl>, Pct_95 <dbl>,
#> #   Pct_975 <dbl>
…
